{
    "monday": [
        "PEMROGRAMAN BERORIENTASI OBJEK"
    ],
    "tuesday": [
        "SISTEM OPERASI",
        "ANALISA DAN PERANCANGAN SISTEM"
    ],
    "wednesday": [
        "TEKNOLOGI WEB"
    ],
    "thursday": [
        "REKAYASA PERANGKAT LUNAK",
        "GRAPH DAN OTOMATA"
    ],
    "friday": [
        "JARINGAN KOMPUTER",
        "MEMIMPIN USAHA"
    ],
    "saturday": [],
    "sunday": []
}